Exploratory data analysis
…
---
# Extract home games

```r
fdb %>% 
  filter(home == "Manchester United" ) -> HManU 
HManU
```

```
# A tibble: 2,240 x 12
   Date  Season home  visitor FT    hgoal vgoal division  tier totgoal goaldif
   <fct>  <dbl> <fct> <fct>   <fct> <dbl> <dbl> <fct>    <dbl>   <dbl>   <dbl>
 1 1893…   1892 Manc… Accrin… 3-3       3     3 1            1       6       0
 2 1892…   1892 Manc… Aston … 2-0       2     0 1            1       2       2
 3 1892…   1892 Manc… Blackb… 4-4       4     4 1            1       8       0
 4 1892…   1892 Manc… Bolton… 1-0       1     0 1            1       1       1
 5 1892…   1892 Manc… Burnley 1-1       1     1 1            1       2       0
 6 1892…   1892 Manc… Derby … 7-1       7     1 1            1       8       6
 7 1892…   1892 Manc… Everton 3-4       3     4 1            1       7      -1
 8 1893…   1892 Manc… Nottin… 1-3       1     3 1            1       4      -2
 9 1892…   1892 Manc… Notts … 1-3       1     3 1            1       4      -2
10 1893…   1892 Manc… Presto… 2-1       2     1 1            1       3       1
# … with 2,230 more rows, and 1 more variable: result <fct>
```
…
```
[1] 2240   12
```

---
# Extract all records of team

```r
fdb %>%
  filter(home == "Manchester United" | visitor == "Manchester United") -> ManU 
ManU
```

```
# A tibble: 4,480 x 12
   Date  Season home  visitor FT    hgoal vgoal division  tier totgoal goaldif
   <fct>  <dbl> <fct> <fct>   <fct> <dbl> <dbl> <fct>    <dbl>   <dbl>   <dbl>
 1 1892…   1892 Accr… Manche… 2-2       2     2 1            1       4       0
 2 1893…   1892 Asto… Manche… 2-0       2     0 1            1       2       2
 3 1892…   1892 Blac… Manche… 4-3       4     3 1            1       7       1
 4 1892…   1892 Bolt… Manche… 4-1       4     1 1            1       5       3
 5 1892…   1892 Burn… Manche… 4-1       4     1 1            1       5       3
 6 1893…   1892 Derb… Manche… 5-1       5     1 1            1       6       4
 7 1892…   1892 Ever… Manche… 6-0       6     0 1            1       6       6
 8 1893…   1892 Manc… Accrin… 3-3       3     3 1            1       6       0
 9 1892…   1892 Manc… Aston … 2-0       2     0 1            1       2       2
10 1892…   1892 Manc… Blackb… 4-4       4     4 1            1       8       0
# … with 4,470 more rows, and 1 more variable: result <fct>
```
…
```
[1] 4480   12
```

---
# Select columns with select()

```r
ManU %>%
  select(home,visitor,FT)
```

```
# A tibble: 4,480 x 3
   home              visitor           FT   
   <fct>             <fct>             <fct>
 1 Accrington F.C.   Manchester United 2-2  
 2 Aston Villa       Manchester United 2-0  
 3 Blackburn Rovers  Manchester United 4-3  
 4 Bolton Wanderers  Manchester United 4-1  
 5 Burnley           Manchester United 4-1  
 6 Derby County      Manchester United 5-1  
 7 Everton           Manchester United 6-0  
 8 Manchester United Accrington F.C.   3-3  
 9 Manchester United Aston Villa       2-0  
10 Manchester United Blackburn Rovers  4-4  
# … with 4,470 more rows
```

---
# Select sequence of columns

```r
ManU %>%
  select(Date:FT)
```

```
# A tibble: 4,480 x 5
   Date       Season home              visitor           FT   
   <fct>       <dbl> <fct>             <fct>             <fct>
 1 1892-11-26   1892 Accrington F.C.   Manchester United 2-2  
 2 1893-03-06   1892 Aston Villa       Manchester United 2-0  
 3 1892-09-03   1892 Blackburn Rovers  Manchester United 4-3  
 4 1892-12-03   1892 Bolton Wanderers  Manchester United 4-1  
 5 1892-09-17   1892 Burnley           Manchester United 4-1  
 6 1893-02-11   1892 Derby County      Manchester United 5-1  
 7 1892-09-24   1892 Everton           Manchester United 6-0  
 8 1893-04-08   1892 Manchester United Accrington F.C.   3-3  
 9 1892-11-19   1892 Manchester United Aston Villa       2-0  
10 1892-11-05   1892 Manchester United Blackburn Rovers  4-4  
# … with 4,470 more rows
```
…
---

# Extract distinct Teams

```r
ManU %>%
  filter(home == "Manchester United") %>% 
  select(visitor) %>% 
  distinct()
```

```
# A tibble: 84 x 1
   visitor          
   <fct>            
 1 Accrington F.C.  
 2 Aston Villa      
 3 Blackburn Rovers 
 4 Bolton Wanderers 
 5 Burnley          
 6 Derby County     
 7 Everton          
 8 Nottingham Forest
 9 Notts County     
10 Preston North End
# … with 74 more rows
```

---

# Extract distinct Games

```r
ManU %>% 
  select(home, visitor) %>% 
  distinct()
```

```
# A tibble: 168 x 2
   home              visitor          
   <fct>             <fct>            
 1 Accrington F.C.   Manchester United
 2 Aston Villa       Manchester United
 3 Blackburn Rovers  Manchester United
 4 Bolton Wanderers  Manchester United
 5 Burnley           Manchester United
 6 Derby County      Manchester United
 7 Everton           Manchester United
 8 Manchester United Accrington F.C.  
 9 Manchester United Aston Villa      
10 Manchester United Blackburn Rovers 
# … with 158 more rows
```

---

# Add column

```r
ManU %>% 
  mutate(gain = goaldif / totgoal) %>% 
  select(gain,goaldif,totgoal)
```

```
# A tibble: 4,480 x 3
    gain goaldif totgoal
   <dbl>   <dbl>   <dbl>
 1 0           0       4
 2 1           2       2
 3 0.143       1       7
 4 0.6         3       5
 5 0.6         3       5
 6 0.667       4       6
 7 1           6       6
 8 0           0       6
 9 1           2       2
10 0           0       8
# … with 4,470 more rows
```
…
---
# Group a data by one or more variables.

```r
ManU %>% 
  filter(home == "Manchester United") %>% 
  group_by(Season,tier) -> mang
mang
```

```
# A tibble: 2,240 x 12
# Groups:   Season, tier [113]
   Date  Season home  visitor FT    hgoal vgoal division  tier totgoal goaldif
   <fct>  <dbl> <fct> <fct>   <fct> <dbl> <dbl> <fct>    <dbl>   <dbl>   <dbl>
 1 1893…   1892 Manc… Accrin… 3-3       3     3 1            1       6       0
 2 1892…   1892 Manc… Aston … 2-0       2     0 1            1       2       2
 3 1892…   1892 Manc… Blackb… 4-4       4     4 1            1       8       0
 4 1892…   1892 Manc… Bolton… 1-0       1     0 1            1       1       1
 5 1892…   1892 Manc… Burnley 1-1       1     1 1            1       2       0
 6 1892…   1892 Manc… Derby … 7-1       7     1 1            1       8       6
 7 1892…   1892 Manc… Everton 3-4       3     4 1            1       7      -1
 8 1893…   1892 Manc… Nottin… 1-3       1     3 1            1       4      -2
 9 1892…   1892 Manc… Notts … 1-3       1     3 1            1       4      -2
10 1893…   1892 Manc… Presto… 2-1       2     1 1            1       3       1
# … with 2,230 more rows, and 1 more variable: result <fct>
```

---
# make summary table

```r
mang %>% 
  summarise(
    HAG = round(mean(hgoal),2),
    HTG = sum(hgoal),
    HW = sum(result == "H")) -> Hstat
Hstat
```

```
# A tibble: 113 x 5
# Groups:   Season [113]
   Season  tier   HAG   HTG    HW
    <dbl> <dbl> <dbl> <dbl> <int>
 1   1892     1  2.6     39     6
 2   1893     1  1.93    29     5
 3   1894     2  3.47    52     9
 4   1895     2  3.2     48    12
 5   1896     2  2.47    37    11
 6   1897     2  2.8     42    11
 7   1898     2  3       51    12
 8   1899     2  2.59    44    15
 9   1900     2  1.82    31    11
10   1901     2  1.59    27    10
# … with 103 more rows
```
…
```r
ManU %>%
  filter(visitor == "Manchester United") %>%
  group_by(Season,tier) %>% 
  summarise(
    VAG = round(mean(hgoal),2),
    VTG = sum(hgoal),
    VW = sum(result == "H")) -> VStat
full_join(Hstat,VStat)
```

```
# A tibble: 113 x 8
# Groups:   Season [113]
   Season  tier   HAG   HTG    HW   VAG   VTG    VW
    <dbl> <dbl> <dbl> <dbl> <int> <dbl> <dbl> <int>
 1   1892     1  2.6     39     6  3.33    50    12
 2   1893     1  1.93    29     5  2.6     39    14
 3   1894     2  3.47    52     9  1.73    26     7
 4   1895     2  3.2     48    12  2.8     42    11
 5   1896     2  2.47    37    11  1.6     24     8
 6   1897     2  2.8     42    11  1.67    25     6
 7   1898     2  3       51    12  1.71    29     9
 8   1899     2  2.59    44    15  0.94    16     9
 9   1900     2  1.82    31    11  1.71    29    13
10   1901     2  1.59    27    10  2.41    41    12
# … with 103 more rows
```
…
